{
  "discoveryModel": {
    "name": "ob-v3.1-generic",
    "description": "An Open Banking UK discovery template for v3.1 of Accounts and Payments.",
    "discoveryVersion": "v0.3.0",
    "tokenAcquisition": "psu",
    "discoveryItems": [
      {
        "apiSpecification": {
          "name": "Account and Transaction API Specification",
          "url": "https://openbanking.atlassian.net/wiki/spaces/DZ/pages/937820271/Account+and+Transaction+API+Specification+-+v3.1",
          "version": "v3.1.0",
          "schemaVersion": "https://raw.githubusercontent.com/OpenBankingUK/read-write-api-specs/v3.1.0/dist/account-info-swagger.json",
          "manifest": "file://manifests/ob_3.1_accounts_transactions_fca.json"
        },
        "openidConfigurationUri": "https://authorise-api.lloydsbank.co.uk/prod01/channel/lyds/.well-known/openid-configuration",
        "resourceBaseUri": "https://secure-api.lloydsbank.com/prod01/lbg/lyds/open-banking/v3.1/aisp",
        "endpoints": [
          {
            "method": "POST",
            "path": "/account-access-consents"
          },
          {
            "method": "GET",
            "path": "/account-access-consents/{ConsentId}"
          },
          {
            "method": "DELETE",
            "path": "/account-access-consents/{ConsentId}"
          },
          {
            "method": "GET",
            "path": "/accounts/{AccountId}/product"
          },
          {
            "method": "GET",
            "path": "/accounts/{AccountId}/transactions"
          },
          {
            "method": "GET",
            "path": "/accounts"
          },
          {
            "method": "GET",
            "path": "/accounts/{AccountId}"
          },
          {
            "method": "GET",
            "path": "/accounts/{AccountId}/balances"
          },
          {
            "method": "GET",
            "path": "/accounts/{AccountId}/beneficiaries"
          },
          {
            "method": "GET",
            "path": "/accounts/{AccountId}/standing-orders"
          },
          {
            "method": "GET",
            "path": "/accounts/{AccountId}/direct-debits"
          },
          {
            "method": "GET",
            "path": "/accounts/{AccountId}/scheduled-payments"
          }
        ]
      }
    ],
    "customTests": null
  }
}