{
  "discoveryModel": {
    "name": "NewDay",
    "description": "NewDay Prod template for v3.1",
    "discoveryVersion": "v0.3.0",
    "tokenAcquisition": "psu",
    "discoveryItems": [
      {
        "apiSpecification": {
          "name": "Account and Transaction API Specification",
          "url": "https://openbanking.atlassian.net/wiki/spaces/DZ/pages/937820271/Account+and+Transaction+API+Specification+-+v3.1",
          "version": "v3.1.0",
          "schemaVersion": "https://raw.githubusercontent.com/OpenBankingUK/read-write-api-specs/v3.1.0/dist/account-info-swagger.json",
          "manifest": "file://manifests/ob_3.1_accounts_transactions_fca.json"
        },
        "openidConfigurationUri": "https://api.newdaycards.com/identity/v1.0/amazon/.well-known/openid-configuration",
        "resourceBaseUri": "https://api.newdaycards.com/open-banking/v3.1/aisp",
        "resourceIds": {
          "AccountId": "7365010001936528"
        },
        "endpoints": [
          {
            "method": "POST",
            "path": "/account-access-consents"
          },
          {
            "method": "GET",
            "path": "/account-access-consents/{ConsentId}"
          },
          {
            "method": "DELETE",
            "path": "/account-access-consents/{ConsentId}"
          },
          {
            "method": "GET",
            "path": "/accounts"
          },
          {
            "method": "GET",
            "path": "/accounts/{AccountId}"
          },
          {
            "method": "GET",
            "path": "/accounts/{AccountId}/balances"
          },
          {
            "method": "GET",
            "path": "/accounts/{AccountId}/offers"
          },
          {
            "method": "GET",
            "path": "/accounts/{AccountId}/party"
          },
          {
            "method": "GET",
            "path": "/accounts/{AccountId}/product"
          },
          {
            "method": "GET",
            "path": "/accounts/{AccountId}/statements"
          },
          {
            "method": "GET",
            "path": "/accounts/{AccountId}/statements/{StatementId}"
          },
          {
            "method": "GET",
            "path": "/accounts/{AccountId}/statements/{StatementId}/transactions"
          },
          {
            "method": "GET",
            "path": "/accounts/{AccountId}/transactions"
          },
          {
            "method": "GET",
            "path": "/balances"
          },
          {
            "method": "GET",
            "path": "/offers"
          },
          {
            "method": "GET",
            "path": "/party"
          },
          {
            "method": "GET",
            "path": "/products"
          },
          {
            "method": "GET",
            "path": "/statements"
          },
          {
            "method": "GET",
            "path": "/transactions"
          }
        ]
      }
    ],
    "customTests": null
  }
}